{
    "name": "RegistroSeguimiento",
    "alias": "registroseguimiento",
    "description": "",
    "keywords": [],
    "active": 1,
    "order": 0,
    "providers": [
        "Modules\\RegistroSeguimiento\\Providers\\RegistroSeguimientoServiceProvider"
    ],
    "aliases": {},
    "files": [],
    "requires": []
}
