{
    "name": "Saya",
    "alias": "saya",
    "description": "",
    "keywords": [],
    "active": 1,
    "order": 0,
    "providers": [
        "Modules\\Saya\\Providers\\SayaServiceProvider"
    ],
    "aliases": {},
    "files": [],
    "requires": []
}
